{
    "name": "Python & MySQL5",
    "dockerComposeFile": "docker-compose.yml",
    "service": "app",
    "workspaceFolder": "/workspace",
    "extensions": 
    [
        "ms-python.python",
        "VisualStudioExptTeam.vscodeintellicode",
        "ms-python.vscode-pylance",
        "deerawan.vscode-dash",
        "oderwat.indent-rainbow",
        "CoenraadS.bracket-pair-colorizer",
        "frhtylcn.pythonsnippets",
        "LittleFoxTeam.vscode-python-test-adapter",
        "aaron-bond.better-comments",
        "njpwerner.autodocstring",
        "KevinRose.vsc-python-indent"
    ],
    "settings": {
        "terminal.integrated.shell.linux": "/bin/zsh",
        "editor.fontLigatures": true,
        "python.formatting.provider": "black"
    }
}